[gd_scene format=2]

[node name="Blank" type="Control"]
anchor_right = 1.0
anchor_bottom = 1.0
margin_right = -1690.0
margin_bottom = -908.0
rect_min_size = Vector2( 230, 172 )
size_flags_horizontal = 0
size_flags_vertical = 0
__meta__ = {
"_edit_use_anchors_": false
}
