[gd_scene load_steps=3 format=2]

[ext_resource path="res://assets/images/puzzles/pipes/pipe_highlight.png" type="Texture" id=1]
[ext_resource path="res://gui/puzzles/pipes_puzzle/pipe.gd" type="Script" id=2]

[node name="Pipe" type="ToolButton"]
margin_right = 128.0
margin_bottom = 128.0
rect_min_size = Vector2( 230, 172 )
focus_mode = 0
action_mode = 0
enabled_focus_mode = 0
script = ExtResource( 2 )
__meta__ = {
"_edit_use_anchors_": false
}

[node name="Highlight" type="TextureRect" parent="."]
visible = false
anchor_right = 1.0
anchor_bottom = 1.0
mouse_filter = 2
texture = ExtResource( 1 )
__meta__ = {
"_edit_use_anchors_": false
}

[node name="Overlay" type="TextureRect" parent="."]
anchor_right = 1.0
anchor_bottom = 1.0
mouse_filter = 2
