[gd_scene load_steps=6 format=2]

[ext_resource path="res://interactables/puzzle_boards/puzzle_board.tscn" type="PackedScene" id=1]
[ext_resource path="res://assets/images/puzzle_boards/lever_panel.png" type="Texture" id=2]

[sub_resource type="AtlasTexture" id=1]
flags = 4
atlas = ExtResource( 2 )
region = Rect2( 0, 0, 508, 743 )

[sub_resource type="AtlasTexture" id=2]
flags = 4
atlas = ExtResource( 2 )
region = Rect2( 508, 0, 508, 743 )

[sub_resource type="SpriteFrames" id=3]
animations = [ {
"frames": [ SubResource( 1 ) ],
"loop": true,
"name": "default",
"speed": 5.0
}, {
"frames": [ SubResource( 2 ) ],
"loop": true,
"name": "default_hover",
"speed": 5.0
} ]

[node name="LeversPuzzleBoard" instance=ExtResource( 1 )]
title = "Lever Panel"
puzzle = "res://gui/puzzles/levers_puzzle/levers_puzzle.tscn"

[node name="CollisionPolygon2D" parent="." index="0"]
polygon = PoolVector2Array( -224, 0, 208, 0, 184, -40, 184, -210.672, 232, -232, 248, -272, 248, -504, 232, -544, 184, -568.063, 184, -744, -200, -744, -200, -40 )

[node name="Sprite" parent="." index="1"]
position = Vector2( 0, -372 )
frames = SubResource( 3 )
