[gd_scene load_steps=3 format=2]

[ext_resource path="res://assets/images/puzzles/pipes/pipe_curved.png" type="Texture" id=1]
[ext_resource path="res://gui/puzzles/pipes_puzzle/pipe.tscn" type="PackedScene" id=2]

[node name="PipeLU" instance=ExtResource( 2 )]

[node name="Overlay" parent="." index="1"]
texture = ExtResource( 1 )
flip_h = true
