[gd_scene load_steps=3 format=2]

[ext_resource path="res://gui/puzzles/pipes_puzzle/pipe.tscn" type="PackedScene" id=1]
[ext_resource path="res://assets/images/puzzles/pipes/pipe_tri_v.png" type="Texture" id=2]

[node name="PipeLUD" instance=ExtResource( 1 )]

[node name="Overlay" parent="." index="1"]
texture = ExtResource( 2 )
flip_h = true
