[gd_scene load_steps=6 format=2]

[ext_resource path="res://assets/images/cell/brass.png" type="Texture" id=1]
[ext_resource path="res://assets/fonts/MedievalSharp-Regular.ttf" type="DynamicFontData" id=2]
[ext_resource path="res://gui/hud/item_pickup_display.gd" type="Script" id=3]

[sub_resource type="DynamicFont" id=1]
size = 128
outline_size = 3
outline_color = Color( 0, 0, 0, 1 )
use_mipmaps = true
use_filter = true
font_data = ExtResource( 2 )

[sub_resource type="StyleBoxEmpty" id=2]

[node name="ItemPickupDisplay" type="VBoxContainer"]
margin_right = 40.0
margin_bottom = 40.0
size_flags_horizontal = 0
size_flags_vertical = 0
script = ExtResource( 3 )
__meta__ = {
"_edit_use_anchors_": false
}

[node name="Tween" type="Tween" parent="."]

[node name="Label" type="Label" parent="."]
margin_right = 960.0
margin_bottom = 145.0
custom_fonts/font = SubResource( 1 )
text = "Acquired Cog"
align = 1

[node name="HSeparator" type="HSeparator" parent="."]
margin_top = 149.0
margin_right = 960.0
margin_bottom = 229.0
custom_styles/separator = SubResource( 2 )
custom_constants/separation = 80

[node name="TextureRect" type="TextureRect" parent="."]
margin_top = 233.0
margin_right = 960.0
margin_bottom = 713.0
rect_min_size = Vector2( 960, 480 )
size_flags_horizontal = 0
size_flags_vertical = 0
texture = ExtResource( 1 )
expand = true
stretch_mode = 6
